{
  "EDITOR_STATE": {
    "allProjectFiles": {
      "f1b88dca-c378-40db-af41-ab96f529f479": {
        "id": "f1b88dca-c378-40db-af41-ab96f529f479",
        "parent": null,
        "name": "testKeyGen.js",
        "type": "JS_LAMBDA",
        "isDirectory": false,
        "children": [],
        "isRemovable": true,
        "filePath": "testKeyGen.js",
        "cursor": {
          "lineNumber": 5,
          "column": 24
        },
        "config": {
          "runtime": "nodejs10.x",
          "handler": "handler",
          "timeout": 60,
          "memory": 128,
          "layers": [],
          "name": "testKeyGen"
        },
        "triggers": []
      }
    },
    "openFiles": [
      "f1b88dca-c378-40db-af41-ab96f529f479"
    ],
    "currentFileId": "f1b88dca-c378-40db-af41-ab96f529f479",
    "resources": {},
    "customTemplate": {
      "syntax": "JSON",
      "overrideDefault": false,
      "dialect": "CloudFormation",
      "definitions": null
    },
    "envVariables": [
      {
        "lambdaId": "all",
        "varKey": "SIGMA_AWS_ACC_ID",
        "varValue": null,
        "shouldPersist": false,
        "displayOnly": false,
        "editable": false
      }
    ],
    "packageJSON": {
      "dependencies": {
        "ask-sdk": {
          "name": "ask-sdk",
          "language": "nodejs",
          "version": "2.7.0",
          "dev": false,
          "notRemovable": false
        },
        "slappforge-sdk-xml": {
          "name": "slappforge-sdk-xml",
          "language": "nodejs",
          "version": "0.0.5",
          "dev": false,
          "notRemovable": false
        }
      }
    }
  },
  "PROJECT_META": {
    "sigmaVersion": "1.4.1.1",
    "projectName": "testKeyGen",
    "projectDescription": "Zapier to License Spring experiment",
    "projectVersion": "1.0.0",
    "projectRegion": "eu-west-2",
    "platform": "AWS",
    "language": "nodejs",
    "platformRegions": {},
    "lastSave": 1595362800485
  },
  "VCS_STATE": {
    "provider": "BitBucket",
    "repo": {
      "name": "testkeygen",
      "url": "https://bitbucket.org/microchips/testkeygen"
    }
  }
}